<svg width="28" height="28" viewBox="0 0 28 28" fill="none" xmlns="http://www.w3.org/2000/svg">
<g clip-path="url(#clip0)">
<path d="M28 11.923C28 10.1749 26.5778 8.75274 24.8297 8.75274C24.6024 8.75274 24.3807 8.77728 24.1668 8.82298V8.75274C24.1668 5.5579 21.5676 2.95874 18.3728 2.95874H16.4529C16.1511 2.95874 15.9063 3.20345 15.9063 3.50534C15.9063 3.80723 16.1511 4.05195 16.4529 4.05195H18.3728C20.9649 4.05195 23.0736 6.16075 23.0736 8.75274V9.28513C22.2218 9.85409 21.6594 10.824 21.6594 11.923V14.1934C21.2152 13.8661 20.667 13.6722 20.0742 13.6722H16.1318C15.2629 13.6722 14.4896 14.0884 14 14.7315C13.5104 14.0884 12.7371 13.6722 11.8682 13.6722H7.92576C7.33296 13.6722 6.78477 13.8661 6.3406 14.1934V11.923C6.3406 10.824 5.77826 9.85409 4.92638 9.28513V8.75274C4.92638 6.16075 7.03512 4.05195 9.62717 4.05195H11.5336C11.8354 4.05195 12.0802 3.80723 12.0802 3.50534C12.0802 3.20345 11.8354 2.95874 11.5336 2.95874H9.62717C6.43238 2.95874 3.83317 5.5579 3.83317 8.75274V8.82298C3.61928 8.77728 3.39763 8.75274 3.1703 8.75274C1.42221 8.75274 0 10.1749 0 11.923C0 13.2034 0.763332 14.3081 1.85845 14.808V17.4984C1.85845 19.9823 3.70903 22.0418 6.10376 22.3714V23.2924C6.10376 24.2569 6.88841 25.0415 7.85289 25.0415C8.81738 25.0415 9.60203 24.2569 9.60203 23.2924V22.4178H18.398V23.2924C18.398 24.2569 19.1826 25.0415 20.1471 25.0415C21.1116 25.0415 21.8962 24.2569 21.8962 23.2924V22.3695C24.2842 22.0338 26.1277 19.9775 26.1277 17.4984V14.8143C27.2302 14.3174 28 13.2088 28 11.923ZM16.1318 14.7654H20.0742C20.9391 14.7654 21.644 15.4618 21.6587 16.3232C21.644 17.2148 20.9146 17.9357 20.0196 17.9357H14.5466V16.3505C14.5466 15.4765 15.2577 14.7654 16.1318 14.7654ZM7.92576 14.7654H11.8682C12.7423 14.7654 13.4534 15.4765 13.4534 16.3505V17.9357H7.98042C7.08535 17.9357 6.35596 17.2148 6.34131 16.3232C6.35602 15.4618 7.06086 14.7654 7.92576 14.7654ZM8.50882 23.2924C8.50882 23.6541 8.21458 23.9483 7.85289 23.9483C7.49121 23.9483 7.19697 23.6541 7.19697 23.2924V22.4178H8.50882V23.2924ZM20.803 23.2924C20.803 23.6541 20.5088 23.9483 20.1471 23.9483C19.7854 23.9483 19.4912 23.6541 19.4912 23.2924V22.4178H20.803V23.2924ZM24.8297 14.0001C24.5279 14.0001 24.2831 14.2449 24.2831 14.5467C24.2831 14.8486 24.5279 15.0933 24.8297 15.0933C24.8986 15.0933 24.9667 15.0904 25.0345 15.086V17.4984C25.0345 19.6082 23.3181 21.3246 21.2082 21.3246H6.77789C4.66805 21.3246 2.95166 19.6082 2.95166 17.4984V15.085C3.02398 15.09 3.09673 15.0933 3.1703 15.0933C3.47214 15.0933 3.71691 14.8486 3.71691 14.5467C3.71691 14.2449 3.47214 14.0001 3.1703 14.0001C2.025 14.0001 1.09321 13.0683 1.09321 11.923C1.09321 10.7777 2.025 9.84595 3.1703 9.84595C4.3156 9.84595 5.2474 10.7777 5.2474 11.923C5.2474 11.923 5.24838 16.3875 5.25018 16.4057C5.30812 17.8619 6.51022 19.0289 7.98042 19.0289H20.0196C21.4897 19.0289 22.6919 17.8619 22.7498 16.4057C22.7516 16.3876 22.7526 11.923 22.7526 11.923C22.7526 10.7777 23.6844 9.84595 24.8297 9.84595C25.975 9.84595 26.9068 10.7777 26.9068 11.923C26.9068 13.0683 25.975 14.0001 24.8297 14.0001Z" fill="#C6C6C6"/>
<path d="M14.0002 4.12837C14.144 4.12837 14.285 4.06988 14.3867 3.96821C14.4883 3.866 14.5468 3.72552 14.5468 3.58176C14.5468 3.43746 14.4883 3.29698 14.3867 3.19531C14.285 3.0931 14.144 3.03516 14.0002 3.03516C13.8559 3.03516 13.7154 3.0931 13.6138 3.19531C13.5116 3.29698 13.4536 3.43746 13.4536 3.58176C13.4536 3.72552 13.5116 3.866 13.6138 3.96821C13.7154 4.06988 13.8559 4.12837 14.0002 4.12837Z" fill="#C6C6C6"/>
<path d="M11.1034 8.47548C10.8899 8.26208 10.5439 8.26208 10.3303 8.47548L9.89695 8.90888L9.46354 8.47548C9.25004 8.26208 8.90404 8.26208 8.69048 8.47548C8.47703 8.68892 8.47703 9.03503 8.69048 9.24854L9.12388 9.68194L8.69048 10.1153C8.47703 10.3288 8.47703 10.6749 8.69048 10.8884C8.79723 10.9951 8.93711 11.0485 9.07699 11.0485C9.21686 11.0485 9.35674 10.9951 9.46349 10.8884L9.89689 10.455L10.3303 10.8884C10.437 10.9951 10.5769 11.0485 10.7168 11.0485C10.8567 11.0485 10.9965 10.9951 11.1033 10.8884C11.3167 10.675 11.3167 10.3288 11.1033 10.1153L10.6699 9.68194L11.1033 9.24854C11.3169 9.03503 11.3169 8.68892 11.1034 8.47548Z" fill="#C6C6C6"/>
<path d="M16.8897 10.8884C16.9964 10.9951 17.1363 11.0485 17.2762 11.0485C17.4161 11.0485 17.5559 10.9951 17.6627 10.8884L18.0961 10.455L18.5295 10.8884C18.6363 10.9951 18.7761 11.0485 18.916 11.0485C19.0559 11.0485 19.1958 10.9951 19.3025 10.8884C19.516 10.675 19.516 10.3288 19.3025 10.1153L18.8691 9.68194L19.3025 9.24854C19.516 9.03509 19.516 8.68898 19.3025 8.47548C19.089 8.26208 18.743 8.26208 18.5294 8.47548L18.096 8.90888L17.6626 8.47548C17.4491 8.26208 17.1031 8.26208 16.8896 8.47548C16.6761 8.68892 16.6761 9.03503 16.8896 9.24854L17.323 9.68194L16.8896 10.1153C16.6762 10.3288 16.6762 10.675 16.8897 10.8884Z" fill="#C6C6C6"/>
</g>
<defs>
<clipPath id="clip0">
<rect width="28" height="28" fill="white"/>
</clipPath>
</defs>
</svg>
