<svg width="28" height="28" viewBox="0 0 28 28" fill="none" xmlns="http://www.w3.org/2000/svg">
<g clip-path="url(#clip0)">
<path d="M14 3.73353C14.2577 3.73353 14.4667 3.52457 14.4667 3.26684V0.466691C14.4667 0.208961 14.2577 0 14 0C13.7423 0 13.5333 0.208961 13.5333 0.466691V3.26684C13.5333 3.52457 13.7422 3.73353 14 3.73353Z" fill="#C6C6C6"/>
<path d="M7.06213 2.44869L8.46221 4.87549C8.58961 5.09956 8.87453 5.1779 9.0986 5.05049C9.32267 4.92309 9.40102 4.63817 9.27361 4.4141C9.27262 4.41229 9.27157 4.41054 9.27052 4.40874L7.87044 1.98194C7.74303 1.75787 7.45812 1.67953 7.23405 1.80693C7.00998 1.93434 6.93163 2.21926 7.05904 2.44333C7.06003 2.44513 7.06108 2.44694 7.06213 2.44869Z" fill="#C6C6C6"/>
<path d="M2.44988 7.40455L4.87667 8.80463C5.10074 8.93204 5.38566 8.85369 5.51306 8.62962C5.63925 8.40765 5.56364 8.12548 5.34336 7.99632L2.91657 6.59624C2.6925 6.46883 2.40758 6.54718 2.28018 6.77125C2.15394 6.99322 2.22954 7.2754 2.44988 7.40455Z" fill="#C6C6C6"/>
<path d="M4.19947 13.5341C4.19947 13.2763 3.99051 13.0674 3.73278 13.0674H0.932633C0.674903 13.0674 0.465942 13.2763 0.465942 13.5341C0.465942 13.7918 0.674903 14.0008 0.932633 14.0008H3.73278C3.99051 14.0008 4.19947 13.7918 4.19947 13.5341Z" fill="#C6C6C6"/>
<path d="M4.88017 18.2602C4.87836 18.2613 4.87655 18.2623 4.87474 18.2634L2.44795 19.6635C2.22388 19.7908 2.14547 20.0757 2.27282 20.2998C2.40017 20.5239 2.68509 20.6023 2.90916 20.4749C2.91096 20.4739 2.91277 20.4728 2.91458 20.4718L5.34138 19.0717C5.56545 18.9444 5.64385 18.6594 5.5165 18.4354C5.38915 18.2113 5.10424 18.1329 4.88017 18.2602Z" fill="#C6C6C6"/>
<path d="M25.5501 19.6635L23.1233 18.2634C22.9009 18.133 22.615 18.2076 22.4846 18.4299C22.3542 18.6522 22.4288 18.9382 22.6511 19.0686C22.6529 19.0696 22.6547 19.0707 22.6565 19.0717L25.0833 20.4718C25.3074 20.5991 25.5923 20.5207 25.7196 20.2967C25.8458 20.0748 25.7703 19.7926 25.5501 19.6635Z" fill="#C6C6C6"/>
<path d="M27.0673 13.0674H24.2672C24.0094 13.0674 23.8005 13.2763 23.8005 13.5341C23.8005 13.7918 24.0094 14.0008 24.2672 14.0008H27.0673C27.325 14.0008 27.534 13.7918 27.534 13.5341C27.534 13.2763 27.325 13.0674 27.0673 13.0674Z" fill="#C6C6C6"/>
<path d="M22.8924 8.86712C22.9743 8.86712 23.0548 8.84553 23.1257 8.80458L25.5525 7.40451C25.7749 7.27419 25.8494 6.98823 25.7191 6.76591C25.59 6.54563 25.3078 6.47003 25.0858 6.59621L22.659 7.99628C22.4358 8.12514 22.3593 8.41058 22.4882 8.63377C22.5716 8.77816 22.7256 8.86712 22.8924 8.86712Z" fill="#C6C6C6"/>
<path d="M18.9002 5.04631C19.1234 5.17517 19.4089 5.0987 19.5377 4.8755L20.9378 2.4487C21.0682 2.22638 20.9936 1.94042 20.7713 1.81004C20.549 1.67966 20.263 1.75421 20.1326 1.97653C20.1316 1.97834 20.1305 1.98015 20.1295 1.98195L18.7294 4.40875C18.6005 4.632 18.677 4.91744 18.9002 5.04631Z" fill="#C6C6C6"/>
<path d="M14 6.53369C10.1356 6.53807 7.00398 9.66968 6.9996 13.5341C6.9996 13.7918 7.20856 14.0007 7.4663 14.0007C7.72403 14.0007 7.93299 13.7918 7.93299 13.5341C7.93684 10.185 10.6509 7.47092 14 7.46707C14.2577 7.46707 14.4667 7.25811 14.4667 7.00038C14.4667 6.74265 14.2577 6.53369 14 6.53369Z" fill="#C6C6C6"/>
<path d="M22.5404 15.9116V15.9092C22.5553 15.8626 22.5689 15.8122 22.5805 15.7664C22.5973 15.702 22.6113 15.6372 22.6272 15.5723C22.6431 15.5074 22.658 15.4426 22.6669 15.3908C23.7016 10.6041 20.6601 5.88502 15.8735 4.85025C11.0869 3.81548 6.36775 6.85702 5.33298 11.6436C5.19869 12.2649 5.1316 12.8987 5.13283 13.5343C5.13283 13.7419 5.1417 13.9482 5.15616 14.1531C5.16363 14.2665 5.17483 14.3818 5.18883 14.5026C5.21497 14.7407 5.24857 14.9768 5.29384 15.2106C5.29757 15.2297 5.29897 15.2493 5.3041 15.2685C5.32464 15.3754 5.35077 15.479 5.37551 15.5826C5.38998 15.6428 5.40398 15.703 5.41938 15.7627C5.42638 15.7879 5.43011 15.8094 5.43804 15.8383C5.45671 15.9078 5.47865 15.9737 5.49918 16.0418C5.52112 16.1174 5.54212 16.193 5.56638 16.2677L5.56919 16.2765C5.61119 16.4123 5.65879 16.5444 5.71619 16.6914C5.72693 16.7199 5.73813 16.7479 5.74933 16.7759C5.75959 16.8107 5.77307 16.8444 5.78946 16.8767L5.7918 16.8823C5.82306 16.9654 5.85947 17.048 5.89587 17.1254L5.90194 17.1371C5.92527 17.1898 5.9486 17.2421 5.97381 17.2949C5.98547 17.321 5.99667 17.3499 6.00834 17.3737C6.13336 17.6372 6.27266 17.8936 6.42556 18.1419L6.46897 18.211C6.49697 18.2576 6.52543 18.3043 6.5539 18.344L6.61131 18.4294C6.63931 18.4704 6.66824 18.512 6.69671 18.5531C6.71724 18.5829 6.73638 18.6128 6.75738 18.6422C6.76765 18.659 6.77745 18.6753 6.79052 18.6931C6.80032 18.7061 6.81105 18.7192 6.82132 18.7323C6.83952 18.7575 6.85819 18.7789 6.87639 18.8037C6.95292 18.9073 7.03039 19.0099 7.10973 19.1103L7.11533 19.1177C7.13027 19.1355 7.14567 19.1523 7.162 19.17C7.25534 19.283 7.34868 19.395 7.44902 19.5037H7.45135C7.53442 19.597 7.62263 19.6848 7.71036 19.7735C7.73836 19.801 7.76403 19.8304 7.79203 19.8579C7.80417 19.8696 7.8149 19.8827 7.82704 19.8943C7.95304 20.0157 8.08372 20.1319 8.21299 20.2467C8.458 20.4615 8.71643 20.6603 8.98676 20.8422C9.03518 20.8968 9.09579 20.9394 9.16364 20.9663L9.34612 22.3253C9.33952 22.3502 9.33515 22.3757 9.33305 22.4014C9.33433 22.4731 9.35236 22.5437 9.38578 22.6072L9.72927 25.1609C9.73493 25.2049 9.747 25.2479 9.7652 25.2883C9.86397 25.5116 9.98297 25.7253 10.1208 25.9268V25.93L10.1246 25.9342C11.5587 28.0727 14.4549 28.6438 16.5934 27.2096C17.0975 26.8716 17.5308 26.4383 17.8688 25.9342L17.8726 25.93L17.8749 25.9268C18.0127 25.7253 18.1317 25.5116 18.2305 25.2883C18.2487 25.2479 18.2608 25.2049 18.2664 25.1609L18.8307 20.9658C18.8633 20.9549 18.8946 20.9404 18.924 20.9224C20.685 19.7424 21.9653 17.971 22.5334 15.9289C22.5376 15.9232 22.5404 15.9177 22.5404 15.9116ZM11.5349 26.1349H16.465C15.0572 27.3794 12.9426 27.3794 11.5349 26.1349ZM17.3545 24.9682C17.3177 25.0475 17.2771 25.1255 17.2337 25.2015H10.7662C10.7228 25.1259 10.6822 25.048 10.6453 24.9682L10.363 22.8681H17.6368L17.3545 24.9682ZM17.7615 21.9403C17.7517 21.9398 17.7433 21.9347 17.7335 21.9347H10.2375L10.112 21.0013H17.888L17.7615 21.9403ZM13.0666 20.0679V15.6978L13.7241 16.1715C13.8871 16.2889 14.1068 16.2889 14.2697 16.1715L14.9333 15.6936V20.0679H13.0666ZM21.916 14.0476C21.9071 14.1914 21.894 14.3304 21.8768 14.4704V14.4812C21.871 14.5067 21.8671 14.5326 21.8651 14.5586V14.568C21.8623 14.582 21.8604 14.596 21.8586 14.6109C21.8567 14.6258 21.8558 14.6342 21.8544 14.6468C21.8544 14.6604 21.8506 14.6735 21.8488 14.687C21.8385 14.7593 21.8278 14.8312 21.8152 14.9031C21.8091 14.9357 21.8044 14.9661 21.7965 15.0029C21.789 15.0524 21.7774 15.1056 21.7601 15.1849V15.1933C21.7484 15.2493 21.7363 15.3054 21.7232 15.3609C21.7186 15.3796 21.7153 15.3954 21.7097 15.4164C21.694 15.4931 21.6743 15.569 21.6509 15.6437C21.642 15.6768 21.6322 15.71 21.6229 15.7431C21.6 15.8276 21.5762 15.9102 21.5445 16.0003C21.5062 16.1197 21.4684 16.2392 21.4217 16.3535L21.4035 16.4002C21.3817 16.4609 21.3568 16.5204 21.3289 16.5785C21.3187 16.5986 21.3101 16.6196 21.3032 16.641L21.2939 16.662C21.2523 16.7666 21.2061 16.8664 21.1464 16.9887C21.1128 17.0643 21.0755 17.1357 21.0381 17.2071L20.9817 17.3187C20.3828 18.4223 19.5298 19.3676 18.4933 20.0763C18.469 20.0714 18.4443 20.0686 18.4195 20.0679H15.8667V16.1449L15.9041 16.1715C16.0668 16.2884 16.286 16.2884 16.4487 16.1715L17.5389 15.3884C17.7523 15.2439 17.8083 14.9538 17.6638 14.7404C17.5193 14.5269 17.2292 14.471 17.0157 14.6155C17.0086 14.6203 17.0016 14.6253 16.9947 14.6305L16.1761 15.2181L15.358 14.6305C15.1952 14.5134 14.9757 14.5134 14.8129 14.6305L13.9972 15.2176L13.1814 14.6305C13.0184 14.5131 12.7988 14.5131 12.6358 14.6305L11.8205 15.2176L11.0061 14.6305C10.797 14.4797 10.5052 14.5271 10.3544 14.7362C10.2036 14.9454 10.251 15.2372 10.4601 15.388L11.5475 16.1715C11.7104 16.2889 11.9301 16.2889 12.0931 16.1715L12.1332 16.1426V20.0679H9.58039C9.56056 20.0682 9.54078 20.0696 9.52112 20.0721C9.01722 19.7271 8.55449 19.3255 8.14205 18.8751C8.05291 18.778 7.96658 18.6753 7.87977 18.5703C7.8639 18.5512 7.84664 18.5325 7.83077 18.5129C7.7519 18.4196 7.67956 18.3206 7.60769 18.2208C7.58016 18.1834 7.55075 18.1475 7.52415 18.1097V18.1069C7.52042 18.1013 7.51715 18.0962 7.51342 18.0915L7.49802 18.0686C7.48588 18.0528 7.47608 18.0364 7.46442 18.022C7.35568 17.8642 7.25441 17.7018 7.15733 17.5371C7.064 17.3803 6.97953 17.223 6.90112 17.0629C6.86985 17.0008 6.83765 16.9392 6.80778 16.8762C6.79892 16.8543 6.78818 16.8296 6.78258 16.816L6.75971 16.7694L6.75411 16.7582V16.7558C6.64018 16.5018 6.54002 16.2418 6.45403 15.9769C6.44563 15.9517 6.4377 15.9251 6.4293 15.8994C6.38683 15.7636 6.34716 15.6264 6.31169 15.4874C6.31169 15.4799 6.30749 15.4729 6.30609 15.4654C6.30329 15.4468 6.29956 15.4282 6.29489 15.4099C6.28649 15.3782 6.28042 15.345 6.27295 15.3133C6.25055 15.2162 6.22629 15.1196 6.20855 15.0216C6.20855 15.0109 6.20622 15.0001 6.20435 14.9894C6.17962 14.862 6.15768 14.7299 6.14181 14.5978C6.14146 14.5689 6.13773 14.54 6.13061 14.512C6.13061 14.5022 6.12735 14.4863 6.12455 14.47C6.10728 14.33 6.09468 14.1937 6.08535 14.043C6.07041 13.8735 6.06621 13.7037 6.06621 13.5343C6.07111 9.1546 9.6203 5.60541 14 5.60051C18.3796 5.60541 21.9288 9.1546 21.9337 13.5343C21.9337 13.7037 21.9295 13.8735 21.916 14.0476Z" fill="#C6C6C6"/>
</g>
<defs>
<clipPath id="clip0">
<rect width="28" height="28" fill="white"/>
</clipPath>
</defs>
</svg>
