<svg width="28" height="28" viewBox="0 0 28 28" fill="none" xmlns="http://www.w3.org/2000/svg">
<g clip-path="url(#clip0)">
<path d="M27.4531 18.8122H26.7782C26.7805 18.8066 26.7832 18.8012 26.7854 18.7956C27.0467 18.1257 26.8738 17.3782 26.3447 16.8913L21.0454 12.0143C20.9314 11.9094 20.7781 11.8579 20.624 11.8722C20.4698 11.8867 20.3289 11.9659 20.2364 12.0901C19.7624 12.7267 19.0366 13.1242 18.2449 13.181C17.4536 13.2381 16.6782 12.9478 16.1182 12.3854L12.3996 8.65042C12.1865 8.43638 11.8402 8.43567 11.6262 8.64873C11.4121 8.86179 11.4114 9.20807 11.6245 9.42212L15.3431 13.1571C16.1277 13.9451 17.214 14.3515 18.3231 14.272C19.2298 14.207 20.0749 13.8229 20.716 13.1977L25.604 17.6962C25.9019 17.9703 25.8036 18.3027 25.7665 18.3981C25.7293 18.4934 25.5764 18.8045 25.1716 18.8045H15.6791C14.4301 18.8045 13.2342 18.21 12.4803 17.2143L7.10642 10.1171C6.72744 9.61659 6.12648 9.31783 5.49872 9.31783H2.71704C1.63231 6.88128 2.24427 4.00658 4.26251 2.22426C4.3208 2.17285 4.40951 2.17564 4.46436 2.23077L8.15194 5.93448C8.36505 6.14853 8.71134 6.14929 8.92533 5.93617C9.13937 5.72311 9.14014 5.37683 8.92702 5.16278L5.23945 1.45907C4.77695 0.994557 4.02976 0.970604 3.53845 1.40449C1.0628 3.59079 0.382976 7.17206 1.8853 10.1135C1.88639 10.1156 1.88787 10.1175 1.88896 10.1195C1.89131 10.1241 1.89323 10.1287 1.89574 10.1332C2.42517 11.075 2.70506 12.1439 2.70528 13.2242L2.70637 18.8124H0.546875C0.244836 18.8124 0 19.0572 0 19.3593V26.3593C0 26.6613 0.244836 26.9062 0.546875 26.9062H27.4531C27.7552 26.9062 28 26.6613 28 26.3593V19.3593C28 19.0571 27.7552 18.8122 27.4531 18.8122ZM5.55505 10.4133C5.19083 11.3025 4.99942 12.2631 4.9992 13.2238L4.99811 18.8117H3.80018L3.79909 13.2238C3.79892 12.2585 3.60784 11.3012 3.2427 10.4115H5.49872C5.51759 10.4115 5.53634 10.4121 5.55505 10.4133ZM6.09301 13.2241C6.09312 12.497 6.22174 11.7699 6.46784 11.0854L11.6083 17.8745C11.8766 18.2288 12.189 18.5431 12.5344 18.8122H6.09191L6.09301 13.2241ZM26.9062 25.8122H1.09375V19.906H26.9062V25.8122Z" fill="#C6C6C6"/>
<path d="M10.2758 7.8391C10.4196 7.8391 10.5607 7.78059 10.6624 7.67887C10.7641 7.57715 10.8227 7.43606 10.8227 7.29223C10.8227 7.14841 10.7641 7.00731 10.6624 6.90559C10.5607 6.80388 10.4196 6.74536 10.2758 6.74536C10.132 6.74536 9.99087 6.80388 9.88915 6.90559C9.78743 7.00731 9.72891 7.14841 9.72891 7.29223C9.72891 7.43661 9.78743 7.57715 9.88915 7.67887C9.99087 7.78064 10.132 7.8391 10.2758 7.8391Z" fill="#C6C6C6"/>
</g>
<defs>
<clipPath id="clip0">
<rect width="28" height="28" fill="white"/>
</clipPath>
</defs>
</svg>
