<svg width="28" height="28" viewBox="0 0 28 28" fill="none" xmlns="http://www.w3.org/2000/svg">
<g clip-path="url(#clip0)">
<path d="M28 3.33088C28 2.23262 27.1681 1.33911 26.1455 1.33911H1.85439C0.831888 1.33906 0 2.23262 0 3.33088V21.3416C0 22.4398 0.831888 23.3333 1.85445 23.3333H11.9827L11.2432 25.5516H9.81284C9.5066 25.5516 9.25825 25.8 9.25825 26.1062C9.25825 26.4125 9.5066 26.6608 9.81284 26.6608H11.643H16.357H18.1872C18.4934 26.6608 18.7418 26.4125 18.7418 26.1062C18.7418 25.8 18.4934 25.5516 18.1872 25.5516H16.7568L16.0173 23.3333H26.1456C27.1681 23.3333 28 22.4398 28 21.3416V3.33088H28ZM1.10918 3.33088C1.10918 2.84422 1.44349 2.4483 1.85445 2.4483H26.1456C26.5565 2.4483 26.8908 2.84422 26.8908 3.33088V16.5904H1.10918V3.33088ZM15.5875 25.5516H12.4124L13.1519 23.3333H14.848L15.5875 25.5516ZM26.8908 21.3415C26.8908 21.8281 26.5565 22.224 26.1455 22.224H15.2478H12.7521H1.85439C1.44349 22.224 1.10913 21.8281 1.10913 21.3415V17.6995H26.8907V21.3415H26.8908Z" fill="#C6C6C6"/>
<path d="M14.0001 21.4936C14.8606 21.4936 15.5607 20.7935 15.5607 19.9329C15.5607 19.0724 14.8606 18.3723 14.0001 18.3723C13.1395 18.3723 12.4395 19.0724 12.4395 19.9329C12.4395 20.7935 13.1395 21.4936 14.0001 21.4936ZM14.0001 19.4815C14.249 19.4815 14.4515 19.684 14.4515 19.9329C14.4515 20.1819 14.249 20.3844 14.0001 20.3844C13.7511 20.3844 13.5486 20.1819 13.5486 19.9329C13.5486 19.684 13.7511 19.4815 14.0001 19.4815Z" fill="#C6C6C6"/>
<path d="M2.71035 7.67749C2.40411 7.67749 2.15576 7.92584 2.15576 8.23208V15.0178C2.15576 15.3241 2.40411 15.5724 2.71035 15.5724C3.0166 15.5724 3.26495 15.3241 3.26495 15.0178V8.23208C3.26495 7.92578 3.01666 7.67749 2.71035 7.67749Z" fill="#C6C6C6"/>
<path d="M2.71035 3.46265C2.40411 3.46265 2.15576 3.71099 2.15576 4.01724V6.20616C2.15576 6.5124 2.40411 6.76075 2.71035 6.76075C3.0166 6.76075 3.26495 6.5124 3.26495 6.20616V4.01724C3.26495 3.71094 3.01666 3.46265 2.71035 3.46265Z" fill="#C6C6C6"/>
</g>
<defs>
<clipPath id="clip0">
<rect width="28" height="28" fill="white"/>
</clipPath>
</defs>
</svg>
