{
  "footerList": [
     [
      {
        "title": "Главная",
        "link": "/"
      },
      {
        "title": "Настройки",
        "link": "/settings"
      },
      {
        "title": "Мой аккаунт",
        "link": "/my-account"
      }
    ],
    [
      {
        "title": "Мои желания",
        "link": "/my-wish"
      },
      {
        "title": "Друзья",
        "link": "/friends"
      },
      {
        "title": "Лидеры",
        "link": "/top-rates"
      }
    ],
    [
      {
        "title": "FAQ",
        "link": "/faq"
      },
      {
        "title": "Реклама",
        "link": "/"
      }
    ],
    [
      {
        "title": "Условия использования",
        "link": "/use-details"
      },
      {
        "title": "Конфиденциальность",
        "link": "/confidence"
      }
    ]
  ]
}
