<svg width="28" height="28" viewBox="0 0 28 28" fill="none" xmlns="http://www.w3.org/2000/svg">
<g clip-path="url(#clip0)">
<path d="M25.0442 14.9875C25.0442 14.0831 24.3084 13.3473 23.404 13.3473H14.5468V10.9382C14.5468 9.85478 13.6653 8.97332 12.5819 8.97332H11.9224V5.14612C11.9224 4.8442 11.6776 4.59937 11.3757 4.59937H10.9383V3.28046H11.2663C11.5682 3.28046 11.8131 3.03563 11.8131 2.73372V0.546744C11.8131 0.244832 11.5682 0 11.2663 0H7.98585C7.20198 0 6.56431 0.637667 6.56431 1.42153V4.59937H6.12692C5.82501 4.59937 5.58017 4.8442 5.58017 5.14612V8.97332H4.92069C3.83726 8.97332 2.9558 9.85478 2.9558 10.9382V16.0263C2.9558 16.3282 3.20064 16.5731 3.50255 16.5731C3.80446 16.5731 4.04929 16.3282 4.04929 16.0263V10.9382C4.04929 10.4577 4.44021 10.0668 4.92069 10.0668H12.5818C13.0623 10.0668 13.4532 10.4577 13.4532 10.9382V13.3473H11.5943C10.6899 13.3473 9.95407 14.0831 9.95407 14.9875V17.6119C9.95407 18.0317 10.1127 18.4149 10.3731 18.7054C10.1128 18.9958 9.95407 19.3791 9.95407 19.7988V26.3598C9.95407 26.5515 9.98742 26.7354 10.0481 26.9065H5.68947C4.78504 26.9065 4.04924 26.1707 4.04924 25.2663V20.947C4.04924 20.6451 3.8044 20.4003 3.50249 20.4003C3.20058 20.4003 2.95575 20.6451 2.95575 20.947V25.2663C2.95575 26.7737 4.1821 28 5.68947 28H23.404C24.3084 28 25.0442 27.2642 25.0442 26.3598V19.7988C25.0442 19.3791 24.8855 18.9958 24.6252 18.7054C24.8855 18.4149 25.0442 18.0317 25.0442 17.6119V14.9875H25.0442ZM7.6578 1.42153C7.6578 1.24062 7.80493 1.09349 7.98585 1.09349H10.7196V2.18697H10.3915C10.0896 2.18697 9.84477 2.43181 9.84477 2.73372V4.59937H7.6578V1.42153ZM6.67366 8.97332V5.69286H10.8289V8.97332H6.67366ZM11.0476 14.9875C11.0476 14.686 11.2929 14.4408 11.5944 14.4408H23.404C23.7055 14.4408 23.9508 14.686 23.9508 14.9875V17.6119C23.9508 17.9133 23.7055 18.1586 23.404 18.1586H11.5944C11.2929 18.1586 11.0476 17.9133 11.0476 17.6119V14.9875ZM23.9508 26.3598C23.9508 26.6612 23.7055 26.9065 23.404 26.9065H11.5944C11.2929 26.9065 11.0476 26.6612 11.0476 26.3598V19.7988C11.0476 19.4974 11.2929 19.2521 11.5944 19.2521H23.404C23.7055 19.2521 23.9508 19.4974 23.9508 19.7988V26.3598Z" fill="#FFFFFE"/>
<path d="M20.9984 22.5327H14.0001C13.6981 22.5327 13.4533 22.7775 13.4533 23.0795C13.4533 23.3814 13.6981 23.6262 14.0001 23.6262H20.9984C21.3003 23.6262 21.5451 23.3814 21.5451 23.0795C21.5451 22.7775 21.3003 22.5327 20.9984 22.5327Z" fill="#FFFFFE"/>
<path d="M3.5355 18.5194L3.53531 18.5196C3.52749 18.5274 3.5137 18.5332 3.50255 18.5332C3.49162 18.5332 3.47767 18.5275 3.46946 18.5193C3.46153 18.5114 3.45581 18.4976 3.45581 18.4864C3.45581 18.4754 3.46152 18.4615 3.46946 18.4536L3.46965 18.4534C3.47768 18.4454 3.49156 18.4397 3.50255 18.4397C3.51346 18.4397 3.52737 18.4454 3.5354 18.4534L3.53569 18.4537C3.5436 18.4616 3.5493 18.4754 3.5493 18.4864C3.5493 18.4973 3.54364 18.5113 3.5355 18.5194Z" fill="#FFFFFE" stroke="black"/>
</g>
<defs>
<clipPath id="clip0">
<rect width="28" height="28" fill="white"/>
</clipPath>
</defs>
</svg>
