<svg width="28" height="28" viewBox="0 0 28 28" fill="none" xmlns="http://www.w3.org/2000/svg">
<path d="M16.3024 26.2106C16.0222 26.0982 15.7037 26.2343 15.5913 26.5147C15.4974 26.7489 15.2593 26.9063 14.9989 26.9063H13.0011C12.7406 26.9063 12.5025 26.7489 12.4086 26.5147C12.2962 26.2343 11.9779 26.0984 11.6975 26.2106C11.4172 26.323 11.281 26.6413 11.3934 26.9216C11.6561 27.5768 12.2871 28.0001 13.0011 28.0001H14.9989C15.7129 28.0001 16.3439 27.5768 16.6065 26.9216C16.7189 26.6413 16.5828 26.323 16.3024 26.2106Z" fill="#FFFFFE"/>
<path d="M22.7249 23.3932C22.5764 22.6274 22.1045 21.9644 21.4301 21.5728C21.5527 21.4726 21.6678 21.3618 21.7728 21.2398C22.2907 20.6381 22.5201 19.8426 22.4019 19.0576C22.21 17.7821 21.6671 16.5903 20.832 15.611C20.2067 14.8778 19.4381 14.2869 18.5779 13.8718C19.6306 12.7488 20.2764 11.24 20.2764 9.583C20.2763 6.71552 18.3433 4.29095 15.7119 3.54397C16.0703 3.11604 16.2659 2.58141 16.2659 2.01649C16.2659 0.904586 15.3613 0 14.2494 0C14.2494 0 14.2493 0 14.2493 0C13.8004 0 13.3801 0.145961 13.0657 0.410922C12.7182 0.703719 12.5268 1.11524 12.5268 1.56964C12.5268 1.87163 12.7716 2.11652 13.0736 2.11652C13.3756 2.11652 13.6205 1.87168 13.6205 1.56964C13.6205 1.43954 13.6709 1.33109 13.7705 1.2472C13.8879 1.14822 14.058 1.0937 14.2493 1.0937H14.2494C14.7582 1.0937 15.1722 1.50757 15.1722 2.01638C15.1722 2.36102 15.038 2.68499 14.7943 2.92868C14.5506 3.17231 14.2267 3.30652 13.8821 3.30652C13.8821 3.30652 13.8821 3.30652 13.882 3.30652C13.8686 3.30652 13.8555 3.30755 13.8424 3.30854C10.4542 3.39254 7.72367 6.17488 7.72362 9.58295C7.72362 11.2399 8.36937 12.7488 9.42205 13.8717C8.56192 14.2869 7.79334 14.8777 7.16805 15.6109C6.33291 16.5902 5.79003 17.782 5.59808 19.0575C5.47995 19.8426 5.70926 20.638 6.2272 21.2398C6.3322 21.3618 6.44726 21.4726 6.56993 21.5727C5.89547 21.9643 5.42357 22.6273 5.27509 23.3932C5.12618 24.161 5.31726 24.9547 5.79922 25.5706L6.97035 27.0671C7.44351 27.6718 8.16226 27.9969 8.8913 27.9969C9.30518 27.9969 9.72244 27.8921 10.0999 27.6742C11.1423 27.0723 11.589 25.7767 11.139 24.6604L10.4285 22.8979C10.381 22.7802 10.3249 22.6673 10.2623 22.5588H14.2734C14.5755 22.5588 14.8203 22.3139 14.8203 22.0119C14.8203 21.7099 14.5755 21.465 14.2734 21.465H9.22271V20.3121C9.22271 20.1637 9.34346 20.0429 9.49194 20.0429H18.5081C18.6565 20.0429 18.7773 20.1637 18.7773 20.3121V21.5406C18.2347 21.8381 17.8064 22.3152 17.5714 22.8979L16.861 24.6603C16.4109 25.7767 16.8576 27.0723 17.9 27.6742C18.2775 27.8921 18.6946 27.9969 19.1086 27.9969C19.8376 27.9969 20.5565 27.6717 21.0296 27.0671L22.2007 25.5706C22.6828 24.9547 22.8738 24.161 22.7249 23.3932ZM8.81731 9.583C8.81737 6.7253 11.1424 4.40038 14 4.40032C16.8576 4.40038 19.1826 6.7253 19.1827 9.583C19.1827 12.4407 16.8577 14.7656 14 14.7657C11.1423 14.7656 8.81731 12.4407 8.81731 9.583ZM9.41423 23.3069L10.1247 25.0694C10.3721 25.6834 10.1264 26.396 9.55308 26.727C8.97984 27.0581 8.23976 26.9146 7.83173 26.3932L6.6606 24.8966C6.37387 24.5303 6.26023 24.0582 6.34883 23.6015C6.43742 23.1447 6.71933 22.7493 7.12227 22.5167C7.52515 22.2841 8.00854 22.2377 8.44839 22.3893C8.88824 22.5409 9.24026 22.8755 9.41423 23.3069ZM18.5117 17.8555C18.2097 17.8555 17.9648 18.1004 17.9648 18.4023V18.9492H10.0388V18.4023C10.0388 18.1004 9.79392 17.8555 9.49188 17.8555C9.18984 17.8555 8.94501 18.1004 8.94501 18.4023V19.0641C8.46501 19.2753 8.12891 19.7551 8.12891 20.3122V21.0844C7.71476 21.043 7.33047 20.845 7.0561 20.5262C6.74619 20.1661 6.60898 19.6901 6.67963 19.2203C6.99272 17.1393 8.38025 15.4199 10.3282 14.67C11.3613 15.4178 12.63 15.8594 14 15.8594C15.37 15.8594 16.6387 15.4178 17.6718 14.67C19.6197 15.4199 21.0073 17.1393 21.3204 19.2203C21.391 19.6901 21.2538 20.1661 20.9438 20.5262C20.6695 20.845 20.2852 21.043 19.871 21.0844V20.3122C19.871 19.7565 19.5366 19.2777 19.0586 19.0658V18.4023C19.0586 18.1004 18.8137 17.8555 18.5117 17.8555ZM21.3394 24.8966L20.1683 26.3931C19.7603 26.9145 19.0203 27.058 18.447 26.727C17.8736 26.396 17.6279 25.6833 17.8754 25.0692L18.5859 23.3068C18.7598 22.8753 19.1119 22.5408 19.5517 22.3892C19.7221 22.3305 19.8989 22.3015 20.0751 22.3015C20.3539 22.3015 20.631 22.3741 20.8778 22.5167C21.2808 22.7493 21.5626 23.1447 21.6513 23.6014C21.7397 24.0582 21.6261 24.5302 21.3394 24.8966Z" fill="#FFFFFE"/>
<path d="M16.8323 21.6251C16.7306 21.5234 16.5895 21.4648 16.4457 21.4648C16.3019 21.4648 16.1608 21.5233 16.059 21.6251C15.9573 21.7269 15.8988 21.8679 15.8988 22.0117C15.8988 22.1561 15.9573 22.2966 16.059 22.3983C16.1608 22.5006 16.3019 22.5586 16.4457 22.5586C16.5895 22.5586 16.7306 22.5006 16.8323 22.3983C16.934 22.2966 16.9926 22.1555 16.9926 22.0117C16.9926 21.8679 16.934 21.7268 16.8323 21.6251Z" fill="#FFFFFE"/>
<path d="M15.5078 11.4506C15.2732 11.2604 14.9288 11.2966 14.7386 11.5311C14.5569 11.7554 14.2876 11.8839 14 11.8839C13.7124 11.8839 13.4431 11.7553 13.2615 11.5311C13.0713 11.2965 12.727 11.2605 12.4923 11.4506C12.2576 11.6408 12.2216 11.9852 12.4118 12.2198C12.8022 12.7014 13.3811 12.9776 14 12.9776C14.619 12.9776 15.198 12.7014 15.5883 12.2198C15.7785 11.9852 15.7424 11.6408 15.5078 11.4506Z" fill="#FFFFFE"/>
<path d="M12.6181 9.19627C12.122 8.7002 11.3148 8.7002 10.8186 9.19627C10.6051 9.40982 10.605 9.75605 10.8186 9.96966C11.0322 10.1833 11.3785 10.1833 11.592 9.96971C11.6616 9.9001 11.775 9.9001 11.8447 9.96971C11.9515 10.0765 12.0914 10.1299 12.2314 10.1299C12.3713 10.1299 12.5113 10.0765 12.6181 9.96971C12.8316 9.75616 12.8316 9.40988 12.6181 9.19627Z" fill="#FFFFFE"/>
<path d="M17.1814 9.19623C16.6852 8.70022 15.878 8.70022 15.3819 9.19623C15.1684 9.40978 15.1684 9.75606 15.3819 9.96967C15.4887 10.0765 15.6287 10.1299 15.7686 10.1299C15.9086 10.1299 16.0486 10.0764 16.1553 9.96967C16.2249 9.90011 16.3383 9.9 16.408 9.96967C16.6215 10.1833 16.9678 10.1832 17.1814 9.96962C17.3949 9.75606 17.3949 9.40984 17.1814 9.19623Z" fill="#FFFFFE"/>
</svg>
